{"help": "https://data.wprdc.org/api/3/action/help_show?name=datastore_search", "success": true, "result": {"include_total": true, "limit": 15, "records_format": "objects", "resource_id": "b4899889-fbf4-43a5-a5ba-ae178fa07347", "sort": "SaleDate desc", "total_estimation_threshold": null, "records": [{"_id":11274,"SaleNumber":"036DEC22","DocketNumber":"MG-20-000312","ID":"697176","AttorneyName":null,"Plaintiff":"\"MIDFIRST BANK\"","Defendant":"\"BRITTON, DAVID\",\"BRITTON, LU ANN\"","SaleType":"Mortgage Foreclosure","SaleDate":"2022-12-05","SaleStatus":"STAYED","PPDate":null,"Street":"400 BARLYNN RD ","City":"BETHEL PARK","State":"PA","ZIPCode":"15102","Address":null,"Municipality":"9","CostsTaxes":0,"ServiceCompleted":0,"Delivered3129":"FALSE","ReadyForSale":"FALSE","latitude":40.3225543066001,"longitude":-80.052818304506,"AdditionalNotes":"\"9/26/2022 STAYED, NO AFF RECEIVED\"","RecordDate":"2022-12-01"},{"_id":11276,"SaleNumber":"037DEC22","DocketNumber":"MG-18-001494","ID":"653526","AttorneyName":null,"Plaintiff":"\"HSBC BANK USA NA\"","Defendant":"\"STRADER, VANCE\"","SaleType":"Mortgage Foreclosure","SaleDate":"2022-12-05","SaleStatus":"ACTIVE","PPDate":null,"Street":"8525 PERSHING ST ","City":"PITTSBURGH","State":"PA","ZIPCode":"15235","Address":null,"Municipality":"152","CostsTaxes":0,"ServiceCompleted":0,"Delivered3129":"FALSE","ReadyForSale":"FALSE","latitude":40.460092699891,"longitude":-79.875897870829,"AdditionalNotes":null,"RecordDate":"2022-12-01"},{"_id":11262,"SaleNumber":"032DEC22","DocketNumber":"GD-19-005473","ID":"687554","AttorneyName":null,"Plaintiff":"\"PNC BANK NA\"","Defendant":"\"DUCKETT, QUEENIE\",\"STARKE, MANJU\",\"DUCKET, RAJEEV\",\"ESTATE OF RAYMOND DUCKETT\"","SaleType":"Mortgage Foreclosure","SaleDate":"2022-12-05","SaleStatus":"ACTIVE","PPDate":null,"Street":"6620 JACKSON ST ","City":"PITTSBURGH","State":"PA","ZIPCode":"15206","Address":null,"Municipality":"150","CostsTaxes":0,"ServiceCompleted":0,"Delivered3129":"FALSE","ReadyForSale":"FALSE","latitude":40.4746452903335,"longitude":-79.9118100585972,"AdditionalNotes":null,"RecordDate":"2022-12-01"},{"_id":11266,"SaleNumber":"035DEC22","DocketNumber":"GD-22-002942","ID":"691187","AttorneyName":null,"Plaintiff":"\"Freedom Mortgage Corporation\"","Defendant":"\"Sykes, Deborah\"","SaleType":"Mortgage Foreclosure","SaleDate":"2022-12-05","SaleStatus":"ACTIVE","PPDate":null,"Street":"1402 ORANGEWOOD AVE ","City":"PITTSBURGH","State":"PA","ZIPCode":"15216","Address":null,"Municipality":"135","CostsTaxes":0,"ServiceCompleted":0,"Delivered3129":"FALSE","ReadyForSale":"FALSE","latitude":40.4129986598711,"longitude":-80.0186072614823,"AdditionalNotes":null,"RecordDate":"2022-12-01"},{"_id":11273,"SaleNumber":"052DEC22","DocketNumber":"GD-22-008551","ID":"694636","AttorneyName":null,"Plaintiff":"\"Wilmington Savings Fund Society FSB\"","Defendant":"\"Fortney, Linda\",\"Fortney, James\"","SaleType":"Mortgage Foreclosure","SaleDate":"2022-12-05","SaleStatus":"ACTIVE","PPDate":null,"Street":"2304 ONEIL BLVD ","City":"MCKEESPORT","State":"PA","ZIPCode":"15131","Address":null,"Municipality":"126","CostsTaxes":0,"ServiceCompleted":0,"Delivered3129":"FALSE","ReadyForSale":"FALSE","latitude":40.3514611361906,"longitude":-79.8286265822303,"AdditionalNotes":null,"RecordDate":"2022-12-01"},{"_id":11275,"SaleNumber":"067DEC22","DocketNumber":"AR-20-004528","ID":"697788","AttorneyName":null,"Plaintiff":"\"HUNTING RIDGE COMMUNITY SVCS ASSN\"","Defendant":"\"COMPTON, C  SCOTT\"","SaleType":"Other Real Estate","SaleDate":"2022-12-05","SaleStatus":"ACTIVE","PPDate":null,"Street":"740 WHEATLAND CIR ","City":"BRIDGEVILLE ","State":"PA","ZIPCode":"15017","Address":null,"Municipality":"105","CostsTaxes":null,"ServiceCompleted":0,"Delivered3129":"FALSE","ReadyForSale":"FALSE","latitude":40.3279285439191,"longitude":-80.1338440950005,"AdditionalNotes":null,"RecordDate":"2022-12-01"},{"_id":11260,"SaleNumber":"064DEC22","DocketNumber":"GD-21-007083","ID":"682289","AttorneyName":null,"Plaintiff":"\"Wilkinsburg Borough\",\"Wilkinsburg Borough School District\"","Defendant":"\"Tillman, Derrick\",\"Tillman, Nykia\"","SaleType":"Sci Fa sur Tax Lien","SaleDate":"2022-12-05","SaleStatus":"ACTIVE","PPDate":null,"Street":"1317 CHELSEA ST ","City":"PITTSBURGH","State":"PA","ZIPCode":"15221","Address":null,"Municipality":"128","CostsTaxes":0,"ServiceCompleted":1,"Delivered3129":"FALSE","ReadyForSale":"FALSE","latitude":40.4379682508436,"longitude":-79.8723268892799,"AdditionalNotes":null,"RecordDate":"2022-12-01"},{"_id":11261,"SaleNumber":"063DEC22","DocketNumber":"GD-21-012127","ID":"685712","AttorneyName":null,"Plaintiff":"\"Municipality of Penn Hills\",\"Penn Hills School District\"","Defendant":"\"Mallory, Bruce\"","SaleType":"Sci Fa sur Tax Lien","SaleDate":"2022-12-05","SaleStatus":"ACTIVE","PPDate":null,"Street":"145 VETTER DR ","City":"PITTSBURGH","State":"PA","ZIPCode":"15235","Address":null,"Municipality":"86","CostsTaxes":0,"ServiceCompleted":0,"Delivered3129":"FALSE","ReadyForSale":"FALSE","latitude":40.4912186076533,"longitude":-79.7958178313766,"AdditionalNotes":null,"RecordDate":"2022-12-01"},{"_id":11263,"SaleNumber":"072DEC22","DocketNumber":"MG-22-000041","ID":"689120","AttorneyName":null,"Plaintiff":"\"Reverse Mortgage Funding LLC\"","Defendant":"\"Berry, Annette\"","SaleType":"Mortgage Foreclosure","SaleDate":"2022-12-05","SaleStatus":"ACTIVE","PPDate":null,"Street":"8074 CHASKE ST ","City":"VERONA","State":"PA","ZIPCode":"15147","Address":null,"Municipality":"86","CostsTaxes":0,"ServiceCompleted":0,"Delivered3129":"FALSE","ReadyForSale":"FALSE","latitude":40.4756312305759,"longitude":-79.8691732226727,"AdditionalNotes":null,"RecordDate":"2022-12-01"},{"_id":11265,"SaleNumber":"076DEC22","DocketNumber":"GD-22-001997","ID":"690321","AttorneyName":null,"Plaintiff":"\"Bull Buda Realty LLC\"","Defendant":"\"P4L Realty & Rentals LLC\"","SaleType":"Mortgage Foreclosure","SaleDate":"2022-12-05","SaleStatus":"ACTIVE","PPDate":null,"Street":"3087 5TH AVE ","City":"MCKEESPORT","State":"PA","ZIPCode":"15132","Address":null,"Municipality":"80","CostsTaxes":0,"ServiceCompleted":0,"Delivered3129":"FALSE","ReadyForSale":"FALSE","latitude":40.361308411752,"longitude":-79.8273588771117,"AdditionalNotes":"\"COMMERCIAL\"","RecordDate":"2022-12-01"},{"_id":11269,"SaleNumber":"051DEC22","DocketNumber":"GD-22-005704","ID":"692992","AttorneyName":null,"Plaintiff":"\"U.S. Bank National Association\"","Defendant":"\"United States of America\",\"Delaney, Gerrie\",\"Delaney, Steven\"","SaleType":"Mortgage Foreclosure","SaleDate":"2022-12-05","SaleStatus":"ACTIVE","PPDate":null,"Street":"737 ROCKWOOD AVE ","City":"PITTSBURGH","State":"PA","ZIPCode":"15234","Address":null,"Municipality":"74","CostsTaxes":0,"ServiceCompleted":0,"Delivered3129":"FALSE","ReadyForSale":"FALSE","latitude":40.3643359730645,"longitude":-80.0347834673333,"AdditionalNotes":null,"RecordDate":"2022-12-01"},{"_id":11268,"SaleNumber":"033DEC22","DocketNumber":"GD-22-003772","ID":"691888","AttorneyName":null,"Plaintiff":"\"PNC Bank National Association\"","Defendant":"\"Carrabbia, Frank\",\"Carrabbia, Ann\"","SaleType":"Mortgage Foreclosure","SaleDate":"2022-12-05","SaleStatus":"ACTIVE","PPDate":null,"Street":"8 ROSAMOND ST ","City":"MCKEES ROCKS","State":"PA","ZIPCode":"15136","Address":null,"Municipality":"69","CostsTaxes":0,"ServiceCompleted":1,"Delivered3129":"FALSE","ReadyForSale":"FALSE","latitude":40.4696438831767,"longitude":-80.0747133453572,"AdditionalNotes":null,"RecordDate":"2022-12-01"},{"_id":11271,"SaleNumber":"038DEC22","DocketNumber":"MG-16-001016","ID":"693861","AttorneyName":null,"Plaintiff":"\"US BANK NA\"","Defendant":"\"SODORA, LORI\"","SaleType":"Mortgage Foreclosure","SaleDate":"2022-12-05","SaleStatus":"ACTIVE","PPDate":null,"Street":"2311 GRANDVIEW AVENUE & VACANT LAND","City":"MCKEESPORT","State":"PA","ZIPCode":"15132","Address":null,"Municipality":"174","CostsTaxes":0,"ServiceCompleted":0,"Delivered3129":"FALSE","ReadyForSale":"FALSE","latitude":40.3367584274343,"longitude":-79.8350366379164,"AdditionalNotes":"\"2 PARCELS\"","RecordDate":"2022-12-01"},{"_id":11272,"SaleNumber":"056DEC22","DocketNumber":"MG-22-000455","ID":"694157","AttorneyName":null,"Plaintiff":"\"Lakeview Loan Servicing LLC\"","Defendant":"\"Smith, Jeffrey\"","SaleType":"Mortgage Foreclosure","SaleDate":"2022-12-05","SaleStatus":"ACTIVE","PPDate":null,"Street":"236 KAPLAN AVE ","City":"PITTSBURGH","State":"PA","ZIPCode":"15227","Address":null,"Municipality":"16","CostsTaxes":0,"ServiceCompleted":0,"Delivered3129":"FALSE","ReadyForSale":"FALSE","latitude":40.3782498537979,"longitude":-79.9825055004929,"AdditionalNotes":null,"RecordDate":"2022-12-01"},{"_id":11277,"SaleNumber":"058DEC22","DocketNumber":"MG-19-000703","ID":"656140","AttorneyName":null,"Plaintiff":"\"U.S. Bank Trust National Association\",\"MTGLQ Investors L.P.\",\"Wilmington Savings Fund Society FSB\"","Defendant":"\"Pasquarelli, Lee\",\"Pasquarelli, Paul\"","SaleType":"Mortgage Foreclosure","SaleDate":"2022-12-05","SaleStatus":"ACTIVE","PPDate":null,"Street":"1057 TALL TREES DR ","City":"PITTSBURGH","State":"PA","ZIPCode":"15241","Address":null,"Municipality":"116","CostsTaxes":0,"ServiceCompleted":0,"Delivered3129":"FALSE","ReadyForSale":"FALSE","latitude":40.3406667075838,"longitude":-80.0960451966736,"AdditionalNotes":null,"RecordDate":"2022-12-01"}], "fields": [{"id": "_id", "type": "int"}, {"id": "SaleNumber", "type": "text"}, {"id": "DocketNumber", "type": "text"}, {"id": "ID", "type": "text"}, {"id": "AttorneyName", "type": "text"}, {"id": "Plaintiff", "type": "text"}, {"id": "Defendant", "type": "text"}, {"id": "SaleType", "type": "text"}, {"id": "SaleDate", "type": "date"}, {"id": "SaleStatus", "type": "text"}, {"id": "PPDate", "type": "date"}, {"id": "Street", "type": "text"}, {"id": "City", "type": "text"}, {"id": "State", "type": "text"}, {"id": "ZIPCode", "type": "text"}, {"id": "Address", "type": "text"}, {"id": "Municipality", "type": "text"}, {"id": "CostsTaxes", "type": "float8"}, {"id": "ServiceCompleted", "type": "float8"}, {"id": "Delivered3129", "type": "text"}, {"id": "ReadyForSale", "type": "text"}, {"id": "latitude", "type": "float8"}, {"id": "longitude", "type": "float8"}, {"id": "AdditionalNotes", "type": "text"}, {"id": "RecordDate", "type": "date"}], "_links": {"start": "/api/3/action/datastore_search?resource_id=b4899889-fbf4-43a5-a5ba-ae178fa07347&limit=15&sort=SaleDate+desc", "next": "/api/3/action/datastore_search?resource_id=b4899889-fbf4-43a5-a5ba-ae178fa07347&limit=15&sort=SaleDate+desc&offset=15"}, "total": 10631, "total_was_estimated": false}}