{"help":"https://data.wprdc.org/api/3/action/help_show?name=datastore_search","success":true,"result":{"include_total":true,"limit":10,"records_format":"objects","resource_id":"65d0d259-3e58-49d3-bebb-80dc75f61245","total_estimation_threshold":null,"records":[{"_id":1,"pin":"0014A00337000000","block_lot":"14A337","filing_date":"1995-01-19","tax_year":1991,"dtd":"DTD-95-000001","lien_description":"Pgh Water & Sewer Tax Lien","municipality":"Pittsburgh","ward":"18","last_docket_entry":"Notice","amount":490.42,"assignee":"National Tax Funding L.P.","satisfied":false},{"_id":2,"pin":"0014A00337000000","block_lot":"14A337","filing_date":"1995-01-19","tax_year":1992,"dtd":"DTD-95-000002","lien_description":"Pgh Water & Sewer Tax Lien","municipality":"Pittsburgh","ward":"18","last_docket_entry":"Notice","amount":571.35,"assignee":"National Tax Funding L.P.","satisfied":false},{"_id":3,"pin":"0004L00086000000","block_lot":"4L86","filing_date":"1995-01-19","tax_year":1992,"dtd":"DTD-95-000006","lien_description":"Pgh Water & Sewer Tax Lien","municipality":"Pittsburgh","ward":"19","last_docket_entry":"Partial Assignment of Tax Lien","amount":18.14,"assignee":"Caulis Negris LLC","satisfied":false},{"_id":4,"pin":"","block_lot":"19R100 02","filing_date":"1995-01-19","tax_year":1992,"dtd":"DTD-95-000009","lien_description":"Pgh Water & Sewer Tax Lien","municipality":"Pittsburgh","ward":"20","last_docket_entry":"Notice","amount":372.69,"assignee":"National Tax Funding L.P.","satisfied":false},{"_id":5,"pin":"0014A00337000000","block_lot":"14A337","filing_date":"1995-01-19","tax_year":1993,"dtd":"DTD-95-000002","lien_description":"Pgh Water & Sewer Tax Lien","municipality":"Pittsburgh","ward":"18","last_docket_entry":"Notice","amount":770.81,"assignee":"National Tax Funding L.P.","satisfied":false},{"_id":6,"pin":"0004L00086000000","block_lot":"4L86","filing_date":"1995-01-19","tax_year":1993,"dtd":"DTD-95-000006","lien_description":"Pgh Water & Sewer Tax Lien","municipality":"Pittsburgh","ward":"19","last_docket_entry":"Partial Assignment of Tax Lien","amount":183.91,"assignee":"Caulis Negris LLC","satisfied":false},{"_id":7,"pin":"","block_lot":"19R100 02","filing_date":"1995-01-19","tax_year":1993,"dtd":"DTD-95-000009","lien_description":"Pgh Water & Sewer Tax Lien","municipality":"Pittsburgh","ward":"20","last_docket_entry":"Notice","amount":173.64,"assignee":"National Tax Funding L.P.","satisfied":false},{"_id":8,"pin":"0014A00337000000","block_lot":"14A337","filing_date":"1995-01-19","tax_year":1994,"dtd":"DTD-95-000002","lien_description":"Pgh Water & Sewer Tax Lien","municipality":"Pittsburgh","ward":"18","last_docket_entry":"Notice","amount":421.31,"assignee":"National Tax Funding L.P.","satisfied":false},{"_id":9,"pin":"0004L00086000000","block_lot":"4L86","filing_date":"1995-01-19","tax_year":1994,"dtd":"DTD-95-000006","lien_description":"Pgh Water & Sewer Tax Lien","municipality":"Pittsburgh","ward":"19","last_docket_entry":"Partial Assignment of Tax Lien","amount":2169.18,"assignee":"Caulis Negris LLC","satisfied":false},{"_id":10,"pin":"","block_lot":"19R100 02","filing_date":"1995-01-19","tax_year":1994,"dtd":"DTD-95-000009","lien_description":"Pgh Water & Sewer Tax Lien","municipality":"Pittsburgh","ward":"20","last_docket_entry":"Notice","amount":104.14,"assignee":"National Tax Funding L.P.","satisfied":false}],"fields":[{"id":"_id","type":"int"},{"id":"pin","type":"text","info":{"label":"County parcel identifier","notes":"Standard 16-character parcel identifier for Allegheny County parcels. This is the only value to use as a UUID for individual properties (parcels), though there are other values that are unique to each record). The County and City use slightly different formats for parcel number. This is the County's format. (These values have been extracted from the `parc` column (the City's parcel identifier), where possible. Where not possible, the value of this field is `invalid input`.)","type_override":""}},{"id":"block_lot","type":"text","info":{"label":"Block Lot","notes":"The block-lot property identifier for the property being foreclosed on. This is the original format, as recorded by Allegheny County's Department of Court Records.","type_override":""}},{"id":"filing_date","type":"date","info":{"label":"Filing date","notes":"The date when the original petition for conservatorship was filed.","type_override":""}},{"id":"tax_year","type":"int4","info":{"label":"Tax Year","notes":"","type_override":""}},{"id":"dtd","type":"text","info":{"label":"Delinquent Tax Docket ID\t","notes":"The identifier for the Delinquent Tax Docket (DTD) that contains all the information about the history of the lien. This can be used to look up a given lien in the Department of Court Records system (see http://dcr.alleghenycounty.us).\r\n","type_override":""}},{"id":"lien_description","type":"text","info":{"label":"Type(s) of lien\t","notes":"This indicates which kinds of liens this lien is. (Types include [but are not limited to] \"School District Tax Lien\", \"Allegheny County Tax Lien\", \"Pgh Water & Sewer Tax Lien\", and \"Township & School Tax Lien\". The last is an example of multiple liens being combined under a single Delinquent Tax Docket. This practice has been recently discontinued.)\r\n","type_override":""}},{"id":"municipality","type":"text","info":{"label":"","notes":"","type_override":""}},{"id":"ward","type":"text","info":{"label":"Ward","notes":"The ward containing the latitude and longitude for the location in question. ","type_override":""}},{"id":"last_docket_entry","type":"text","info":{"label":"Last change to docket before data extraction\t","notes":"Tax lien dockets consist of a series of entries (beginning with \"Tax Lien\" and sometimes ending with an entry indicating how the lien was terminated (e.g., \"Exoneration\" or \"Satisfaction\")). This represents the last docket entry as of the date that the data was pulled (some date between 2013 and the present), so in many cases more entries have been made in the intervening time.\r\n","type_override":""}},{"id":"amount","type":"float8","info":{"label":"Amount","notes":"The total amount in dollars the mortgage lender is suing the property owner for. At the time of the initial filing, this is the unpaid debt (how much the owner still owes on their mortgage). Later in a foreclosure's history, the value of this field can be 0 if (for instance) the debt has been paid off. In a few instances, this field is empty.","type_override":""}},{"id":"assignee","type":"text","info":{"label":"Holder of the lien","notes":"Where this data has been made available, the entity to which the lien has been assigned is given. For liens filed after 2013, this information is generally unavailable due to the typical delay between when the lien is filed and when it is assigned.\r\n","type_override":""}},{"id":"satisfied","type":"bool","info":{"label":"Lien status\t","notes":"This field is only present in the \"Tax Liens with Current Status\" table. This field indicates whether any data in this repository shows that the lien has been satisfied, exonerated, or struck from the record.\r\n","type_override":""}}],"_links":{"start":"/api/3/action/datastore_search?resource_id=65d0d259-3e58-49d3-bebb-80dc75f61245&limit=10","next":"/api/3/action/datastore_search?resource_id=65d0d259-3e58-49d3-bebb-80dc75f61245&limit=10&offset=10"},"total":2140291,"total_was_estimated":false}}