{"help":"https://data.wprdc.org/api/3/action/help_show?name=datastore_search","success":true,"result":{"include_total":true,"limit":10,"records_format":"objects","resource_id":"5bbe6c55-bce6-4edb-9d04-68edeb6bf7b1","total_estimation_threshold":null,"records":[{"_id":111207559,"PARID":"1010G00075000000","FULL_ADDRESS":"0 HILL ST, SOUTH PARK, PA 15129","PROPERTYHOUSENUM":"0","PROPERTYFRACTION":" ","PROPERTYADDRESSDIR":null,"PROPERTYADDRESSSTREET":"HILL","PROPERTYADDRESSSUF":"ST","PROPERTYADDRESSUNITDESC":null,"PROPERTYUNITNO":null,"PROPERTYCITY":"SOUTH PARK","PROPERTYSTATE":"PA","PROPERTYZIP":"15129","SCHOOLCODE":"37","SCHOOLDESC":"South Park","MUNICODE":"945","MUNIDESC":"South Park  ","RECORDDATE":"2022-07-06","SALEDATE":"2022-06-21","PRICE":1,"DEEDBOOK":"18965","DEEDPAGE":"534","SALECODE":"H","SALEDESC":"MULTI-PARCEL SALE","INSTRTYP":"DE","INSTRTYPDESC":"DEED"},{"_id":111207560,"PARID":"1075F00108000000","FULL_ADDRESS":"4720 HIGHPOINT DR, GIBSONIA, PA 15044","PROPERTYHOUSENUM":"4720","PROPERTYFRACTION":" ","PROPERTYADDRESSDIR":null,"PROPERTYADDRESSSTREET":"HIGHPOINT","PROPERTYADDRESSSUF":"DR","PROPERTYADDRESSUNITDESC":null,"PROPERTYUNITNO":null,"PROPERTYCITY":"GIBSONIA","PROPERTYSTATE":"PA","PROPERTYZIP":"15044","SCHOOLCODE":"20","SCHOOLDESC":"Hampton Township","MUNICODE":"914","MUNIDESC":"Hampton  ","RECORDDATE":"2012-09-27","SALEDATE":"2012-09-27","PRICE":120000,"DEEDBOOK":"15020","DEEDPAGE":"356","SALECODE":"3","SALEDESC":"LOVE AND AFFECTION SALE","INSTRTYP":"DE","INSTRTYPDESC":"DEED"},{"_id":111207561,"PARID":"0011A00237000000","FULL_ADDRESS":"0 LOMBARD ST, PITTSBURGH, PA 15219","PROPERTYHOUSENUM":"0","PROPERTYFRACTION":" ","PROPERTYADDRESSDIR":null,"PROPERTYADDRESSSTREET":"LOMBARD","PROPERTYADDRESSSUF":"ST","PROPERTYADDRESSUNITDESC":null,"PROPERTYUNITNO":null,"PROPERTYCITY":"PITTSBURGH","PROPERTYSTATE":"PA","PROPERTYZIP":"15219","SCHOOLCODE":"47","SCHOOLDESC":"Pittsburgh","MUNICODE":"103","MUNIDESC":"3rd Ward - PITTSBURGH","RECORDDATE":"2015-01-06","SALEDATE":"2015-01-06","PRICE":1783,"DEEDBOOK":"TR15","DEEDPAGE":"00002","SALECODE":"2","SALEDESC":"CITY TREASURER SALE","INSTRTYP":"TS","INSTRTYPDESC":"TREASURER DEED"},{"_id":111207562,"PARID":"0011J00047000000","FULL_ADDRESS":"1903 FORBES AVE, PITTSBURGH, PA 15219","PROPERTYHOUSENUM":"1903","PROPERTYFRACTION":" ","PROPERTYADDRESSDIR":null,"PROPERTYADDRESSSTREET":"FORBES","PROPERTYADDRESSSUF":"AVE","PROPERTYADDRESSUNITDESC":null,"PROPERTYUNITNO":null,"PROPERTYCITY":"PITTSBURGH","PROPERTYSTATE":"PA","PROPERTYZIP":"15219","SCHOOLCODE":"47","SCHOOLDESC":"Pittsburgh","MUNICODE":"101","MUNIDESC":"1st Ward  - PITTSBURGH","RECORDDATE":"2012-10-26","SALEDATE":"2012-10-26","PRICE":4643,"DEEDBOOK":"TR13","DEEDPAGE":"003","SALECODE":"2","SALEDESC":"CITY TREASURER SALE","INSTRTYP":"TS","INSTRTYPDESC":"TREASURER DEED"},{"_id":111207563,"PARID":"0011J00191000000","FULL_ADDRESS":"1806 TUSTIN ST, PITTSBURGH, PA 15219","PROPERTYHOUSENUM":"1806","PROPERTYFRACTION":" ","PROPERTYADDRESSDIR":null,"PROPERTYADDRESSSTREET":"TUSTIN","PROPERTYADDRESSSUF":"ST","PROPERTYADDRESSUNITDESC":null,"PROPERTYUNITNO":null,"PROPERTYCITY":"PITTSBURGH","PROPERTYSTATE":"PA","PROPERTYZIP":"15219","SCHOOLCODE":"47","SCHOOLDESC":"Pittsburgh","MUNICODE":"101","MUNIDESC":"1st Ward  - PITTSBURGH","RECORDDATE":"2023-04-28","SALEDATE":"2023-04-28","PRICE":44100,"DEEDBOOK":"TR24","DEEDPAGE":"000002","SALECODE":"GV","SALEDESC":"GOVERNMENT SALE","INSTRTYP":"TS","INSTRTYPDESC":"TREASURER DEED"},{"_id":111207564,"PARID":"0113B00029000000","FULL_ADDRESS":"479 ROOSEVELT AVE, PITTSBURGH, PA 15202","PROPERTYHOUSENUM":"479","PROPERTYFRACTION":" ","PROPERTYADDRESSDIR":null,"PROPERTYADDRESSSTREET":"ROOSEVELT","PROPERTYADDRESSSUF":"AVE","PROPERTYADDRESSUNITDESC":null,"PROPERTYUNITNO":null,"PROPERTYCITY":"PITTSBURGH","PROPERTYSTATE":"PA","PROPERTYZIP":"15202","SCHOOLCODE":"29","SCHOOLDESC":"Northgate","MUNICODE":"803","MUNIDESC":"Bellevue  ","RECORDDATE":"2017-03-27","SALEDATE":"2017-03-06","PRICE":0,"DEEDBOOK":"16739","DEEDPAGE":"166","SALECODE":"3","SALEDESC":"LOVE AND AFFECTION SALE","INSTRTYP":"CO","INSTRTYPDESC":"CORRECTIVE DEED"},{"_id":111207565,"PARID":"0119S00024000000","FULL_ADDRESS":"5417 NATRONA WAY, PITTSBURGH, PA 15201","PROPERTYHOUSENUM":"5417","PROPERTYFRACTION":" ","PROPERTYADDRESSDIR":null,"PROPERTYADDRESSSTREET":"NATRONA","PROPERTYADDRESSSUF":"WAY","PROPERTYADDRESSUNITDESC":null,"PROPERTYUNITNO":null,"PROPERTYCITY":"PITTSBURGH","PROPERTYSTATE":"PA","PROPERTYZIP":"15201","SCHOOLCODE":"47","SCHOOLDESC":"Pittsburgh","MUNICODE":"110","MUNIDESC":"10th Ward - PITTSBURGH","RECORDDATE":"2015-02-04","SALEDATE":"2015-02-04","PRICE":27541,"DEEDBOOK":"TR15","DEEDPAGE":"00059","SALECODE":"GV","SALEDESC":"GOVERNMENT SALE","INSTRTYP":"TS","INSTRTYPDESC":"TREASURER DEED"},{"_id":111207566,"PARID":"0120N00032000000","FULL_ADDRESS":"5431 KEYSTONE ST, PITTSBURGH, PA 15201","PROPERTYHOUSENUM":"5431","PROPERTYFRACTION":" ","PROPERTYADDRESSDIR":null,"PROPERTYADDRESSSTREET":"KEYSTONE","PROPERTYADDRESSSUF":"ST","PROPERTYADDRESSUNITDESC":null,"PROPERTYUNITNO":null,"PROPERTYCITY":"PITTSBURGH","PROPERTYSTATE":"PA","PROPERTYZIP":"15201","SCHOOLCODE":"47","SCHOOLDESC":"Pittsburgh","MUNICODE":"110","MUNIDESC":"10th Ward - PITTSBURGH","RECORDDATE":"2022-06-20","SALEDATE":"2022-05-31","PRICE":1,"DEEDBOOK":"18940","DEEDPAGE":"308","SALECODE":"99","SALEDESC":"CORRECTIVE DEED / DUPLICATE SALE","INSTRTYP":"CO","INSTRTYPDESC":"CORRECTIVE DEED"},{"_id":111207567,"PARID":"0120D00075000000","FULL_ADDRESS":"6311 BUTLER ST, PITTSBURGH, PA 15201","PROPERTYHOUSENUM":"6311","PROPERTYFRACTION":" ","PROPERTYADDRESSDIR":null,"PROPERTYADDRESSSTREET":"BUTLER","PROPERTYADDRESSSUF":"ST","PROPERTYADDRESSUNITDESC":null,"PROPERTYUNITNO":null,"PROPERTYCITY":"PITTSBURGH","PROPERTYSTATE":"PA","PROPERTYZIP":"15201","SCHOOLCODE":"47","SCHOOLDESC":"Pittsburgh","MUNICODE":"110","MUNIDESC":"10th Ward - PITTSBURGH","RECORDDATE":"2013-03-19","SALEDATE":"2013-03-19","PRICE":1,"DEEDBOOK":"15181","DEEDPAGE":"189","SALECODE":"99","SALEDESC":"CORRECTIVE DEED / DUPLICATE SALE","INSTRTYP":"CO","INSTRTYPDESC":"CORRECTIVE DEED"},{"_id":111207568,"PARID":"0124D00020000000","FULL_ADDRESS":"6419 OLIVANT ST, PITTSBURGH, PA 15206","PROPERTYHOUSENUM":"6419","PROPERTYFRACTION":" ","PROPERTYADDRESSDIR":null,"PROPERTYADDRESSSTREET":"OLIVANT","PROPERTYADDRESSSUF":"ST","PROPERTYADDRESSUNITDESC":null,"PROPERTYUNITNO":null,"PROPERTYCITY":"PITTSBURGH","PROPERTYSTATE":"PA","PROPERTYZIP":"15206","SCHOOLCODE":"47","SCHOOLDESC":"Pittsburgh","MUNICODE":"112","MUNIDESC":"12th Ward - PITTSBURGH","RECORDDATE":"2023-12-18","SALEDATE":"2023-12-16","PRICE":26500,"DEEDBOOK":"19525","DEEDPAGE":"267","SALECODE":"99","SALEDESC":"CORRECTIVE DEED / DUPLICATE SALE","INSTRTYP":"CO","INSTRTYPDESC":"CORRECTIVE DEED"}],"fields":[{"id":"_id","type":"int"},{"id":"PARID","type":"text","info":{"label":"Parcel Identification  Number","notes":"A 16 character unique identifier for the parcel. \n"}},{"id":"FULL_ADDRESS","type":"text","info":{"label":"Full address","notes":"Full street address of the parcel, formed by combining the various separate address fields in the sales record."}},{"id":"PROPERTYHOUSENUM","type":"text","info":{"label":"Property Location House Number","notes":"House Number for the physical location of property;  may be zero or blank. "}},{"id":"PROPERTYFRACTION","type":"text","info":{"label":"Property Location  House Number  Fraction","notes":"Continued House Number information for the physical location of property, such as 1/2, the house number \nending range, or a letter."}},{"id":"PROPERTYADDRESSDIR","type":"text","info":{"label":"Property Location Street  Directional","notes":"Directional indicator of the street name for the physical  location of the property."}},{"id":"PROPERTYADDRESSSTREET","type":"text","info":{"label":"Property Location Street  Name","notes":"Street name for the physical location of the property. "}},{"id":"PROPERTYADDRESSSUF","type":"text","info":{"label":"Property Location Street  Type ","notes":"Suffix of the street name for the physical location of the  property."}},{"id":"PROPERTYADDRESSUNITDESC","type":"text","info":{"label":"Property Location Unit  Description ","notes":"Unit description for the physical location of the  property."}},{"id":"PROPERTYUNITNO","type":"text","info":{"label":"Property Location Unit  Number","notes":"Unit number for the physical location of the property."}},{"id":"PROPERTYCITY","type":"text","info":{"label":"Property Location City  Name","notes":"City where the property is physically located."}},{"id":"PROPERTYSTATE","type":"text","info":{"label":"Property Location State  Name","notes":"State where the property is physically located. "}},{"id":"PROPERTYZIP","type":"text","info":{"label":"Property Location Zip  code","notes":"Zip Code where the property is physically located. \n"}},{"id":"SCHOOLCODE","type":"text","info":{"label":"School District Code","notes":"School district number associated with specified parcel. \n"}},{"id":"SCHOOLDESC","type":"text","info":{"label":"School District Name","notes":"School district name associated with specified parcel. "}},{"id":"MUNICODE","type":"text","info":{"label":"Municipality Name","notes":"Municipality name associated with specified parcel."}},{"id":"MUNIDESC","type":"text","info":{"label":"Municipality Name ","notes":"Municipality name associated with specified parcel."}},{"id":"RECORDDATE","type":"date","info":{"label":"Date Sale was Recorded","notes":"Date the sale was recorded in the Department of Real Estate. Format dd/mm/yyyy.\n"}},{"id":"SALEDATE","type":"date","info":{"label":"Sale Date ","notes":"Date the sale occurred. Format dd/mm/yyyy."}},{"id":"PRICE","type":"float8","info":{"label":"Sale Price","notes":"Amount paid for the sale (also called consideration). "}},{"id":"DEEDBOOK","type":"text","info":{"label":"Deed Book Number ","notes":"Cross-reference to the physical book number  where the deed is on file in the Department of Real Estate."}},{"id":"DEEDPAGE","type":"text","info":{"label":"Page Number ","notes":"Page within the specified deed book corresponding to the first page of this physical deed. "}},{"id":"SALECODE","type":"text","info":{"label":"Sale Validation Code ","notes":"A subjective categorization code denoting whether or not the sale price was representative of current market value. These categorizations are subject to change as sales are reviewed by the Office of Property Assessments or during a reassessment. See further explanation in the \"Sale Validation Codes Dictionary\" resource."}},{"id":"SALEDESC","type":"text","info":{"label":"Sale Validation Code  Description ","notes":"A description of the code denoting whether or not the sale price was representative of current market value. These categorizations are subject to change as sales are reviewed by the Office of Property Assessments or during a reassessment. See further explanation in the  \"Sale Validation Codes Details\u201d resource."}},{"id":"INSTRTYP","type":"text","info":{"label":"Instrument Type","notes":"A code describing the type of document used to record the real property transfer."}},{"id":"INSTRTYPDESC","type":"text","info":{"label":"Instrument Description","notes":"A description of the type of document used to record the real property transfer."}}],"_links":{"start":"/api/3/action/datastore_search?resource_id=5bbe6c55-bce6-4edb-9d04-68edeb6bf7b1&limit=10","next":"/api/3/action/datastore_search?resource_id=5bbe6c55-bce6-4edb-9d04-68edeb6bf7b1&limit=10&offset=10"},"total":492601,"total_was_estimated":false}}